dendogram-CvsN
…
dendogram-CvsN

Libraries

the libraries that I use

My Data

Below you can see the head of my data for a normal sample day. This data has Date, as you can see, also Ticker and Ticker2 as two-node, and the weight of links is according to the cosine of between these shares.

## $`2018-01-02`
## # A tibble: 107,416 x 4
##    Date       Ticker Ticker2 cos_vecs
##    <date>     <chr>  <chr>      <dbl>
##  1 2018-01-02 ABT    MMM        0.734
##  2 2018-01-02 ABBV   MMM        0.966
##  3 2018-01-02 ACN    MMM        0.998
##  4 2018-01-02 ATVI   MMM        0.978
##  5 2018-01-02 AYI    MMM        0.435
##  6 2018-01-02 ADBE   MMM        0.334
##  7 2018-01-02 AAP    MMM        0.874
##  8 2018-01-02 AES    MMM       -0.682
##  9 2018-01-02 AMG    MMM       -0.378
## 10 2018-01-02 AFL    MMM        0.987
## #  with 107,406 more rows
…
